{
    "id": "germany", 
    "lanes": [
        {
            "distanceFromCenter": -10, 
            "index": 0
        }, 
        {
            "distanceFromCenter": 10, 
            "index": 1
        }
    ], 
    "name": "Germany", 
    "pieces": [
        {
            "length": 100.0
        }, 
        {
            "length": 100.0, 
            "switch": true
        }, 
        {
            "angle": 45.0, 
            "radius": 50
        }, 
        {
            "angle": 45.0, 
            "radius": 50
        }, 
        {
            "angle": 45.0, 
            "radius": 50
        }, 
        {
            "length": 50.0
        }, 
        {
            "angle": -45.0, 
            "radius": 50
        }, 
        {
            "angle": -45.0, 
            "radius": 50
        }, 
        {
            "angle": -45.0, 
            "radius": 50
        }, 
        {
            "length": 50.0
        }, 
        {
            "angle": -45.0, 
            "radius": 50
        }, 
        {
            "angle": -45.0, 
            "radius": 50
        }, 
        {
            "angle": -22.5, 
            "radius": 100
        }, 
        {
            "angle": 45.0, 
            "radius": 50
        }, 
        {
            "length": 100.0, 
            "switch": true
        }, 
        {
            "length": 100.0
        }, 
        {
            "angle": -45.0, 
            "radius": 50
        }, 
        {
            "length": 50.0
        }, 
        {
            "angle": 45.0, 
            "radius": 50
        }, 
        {
            "angle": 45.0, 
            "radius": 50
        }, 
        {
            "angle": 22.5, 
            "radius": 100
        }, 
        {
            "length": 100.0, 
            "switch": true
        }, 
        {
            "length": 100.0
        }, 
        {
            "angle": 45.0, 
            "radius": 50
        }, 
        {
            "angle": 45.0, 
            "radius": 50
        }, 
        {
            "angle": 45.0, 
            "radius": 50
        }, 
        {
            "angle": 45.0, 
            "radius": 50
        }, 
        {
            "length": 100.0, 
            "switch": true
        }, 
        {
            "angle": -45.0, 
            "radius": 50
        }, 
        {
            "angle": -45.0, 
            "radius": 50
        }, 
        {
            "length": 50.0
        }, 
        {
            "angle": 22.5, 
            "radius": 100
        }, 
        {
            "length": 100.0
        }, 
        {
            "length": 50.0
        }, 
        {
            "angle": -22.5, 
            "radius": 100
        }, 
        {
            "angle": -22.5, 
            "radius": 100
        }, 
        {
            "length": 100.0, 
            "switch": true
        }, 
        {
            "angle": 45.0, 
            "radius": 50
        }, 
        {
            "angle": 45.0, 
            "radius": 50
        }, 
        {
            "angle": 22.5, 
            "radius": 100
        }, 
        {
            "length": 100.0
        }, 
        {
            "length": 100.0
        }, 
        {
            "length": 100.0
        }, 
        {
            "angle": 45.0, 
            "radius": 100
        }, 
        {
            "length": 70.0
        }, 
        {
            "length": 100.0, 
            "switch": true
        }, 
        {
            "angle": -45.0, 
            "radius": 50
        }, 
        {
            "angle": -45.0, 
            "radius": 50
        }, 
        {
            "angle": 45.0, 
            "radius": 100
        }, 
        {
            "angle": 45.0, 
            "radius": 100
        }, 
        {
            "length": 50.0
        }, 
        {
            "angle": 45.0, 
            "radius": 100
        }, 
        {
            "angle": 45.0, 
            "radius": 100
        }, 
        {
            "angle": 45.0, 
            "radius": 100, 
            "switch": true
        }, 
        {
            "length": 100.0
        }, 
        {
            "length": 100.0
        }, 
        {
            "length": 59.0
        }
    ], 
    "startingPoint": {
        "angle": -90.0, 
        "position": {
            "x": -12.0, 
            "y": 192.0
        }
    }
}