{
    "id": "usa", 
    "lanes": [
        {
            "distanceFromCenter": -20, 
            "index": 0
        }, 
        {
            "distanceFromCenter": 0, 
            "index": 1
        }, 
        {
            "distanceFromCenter": 20, 
            "index": 2
        }
    ], 
    "name": "USA", 
    "pieces": [
        {
            "length": 100.0
        }, 
        {
            "length": 100.0, 
            "switch": true
        }, 
        {
            "angle": 22.5, 
            "radius": 200
        }, 
        {
            "angle": 22.5, 
            "radius": 200
        }, 
        {
            "angle": 22.5, 
            "radius": 200
        }, 
        {
            "angle": 22.5, 
            "radius": 200
        }, 
        {
            "length": 100.0
        }, 
        {
            "length": 100.0, 
            "switch": true
        }, 
        {
            "angle": 22.5, 
            "radius": 200
        }, 
        {
            "angle": 22.5, 
            "radius": 200
        }, 
        {
            "angle": 22.5, 
            "radius": 200
        }, 
        {
            "angle": 22.5, 
            "radius": 200
        }, 
        {
            "length": 100.0
        }, 
        {
            "length": 100.0
        }, 
        {
            "length": 100.0
        }, 
        {
            "length": 100.0
        }, 
        {
            "length": 100.0
        }, 
        {
            "length": 100.0, 
            "switch": true
        }, 
        {
            "angle": 22.5, 
            "radius": 200
        }, 
        {
            "angle": 22.5, 
            "radius": 200
        }, 
        {
            "angle": 22.5, 
            "radius": 200
        }, 
        {
            "angle": 22.5, 
            "radius": 200
        }, 
        {
            "length": 100.0
        }, 
        {
            "length": 100.0, 
            "switch": true
        }, 
        {
            "angle": 22.5, 
            "radius": 200
        }, 
        {
            "angle": 22.5, 
            "radius": 200
        }, 
        {
            "angle": 22.5, 
            "radius": 200
        }, 
        {
            "angle": 22.5, 
            "radius": 200
        }, 
        {
            "length": 100.0
        }, 
        {
            "length": 100.0
        }, 
        {
            "length": 100.0
        }, 
        {
            "length": 100.0
        }
    ], 
    "startingPoint": {
        "angle": 90.0, 
        "position": {
            "x": -340.0, 
            "y": -96.0
        }
    }
}